Regresi dengan R dan RStudio
…
weleh<-read_excel("latihan2.xlsx",sheet="nama_sheet")

Anda bisa juga ketik command ini di consol lalu di-enter, tapi tentu saja enakan taruh di Rscript, blok, lalu run. Jika sudah di-run, maka obyek ini akan muncul di environment anda di kanan atas. Jika anda klik, anda akan bisa melihat struktur datanya. Anda juga bisa lihat dengan mengetik View(dat) di console lalu enter. V-nya gede yah.

Yang terpenting untuk membaca data excel adalah nama variabel harus ada di paling atas dan cuma terdiri dari 1 baris aja. Jadi ga boleh ada kolom yang merge atau semacamnya.

ngomong-ngomong, data latihan2.xlsx saya itu isinya begini:

Code

dat<-read_excel("latihan2.xlsx")
dat

# A tibble: 100 × 3
       X     S     Y
   <dbl> <dbl> <dbl>
 1     2    61  48.5
 2     0    94  53  
 3    14    29  53.5
 4    19    94  90  
 5    10    81  71.5
 6    15    95  82.5
 7    11    47  55.5
 8    14    82  77  
 9     0    81  51.5
10    17    28  56  
# ℹ 90 more rows
…
